0 info it worked if it ends with ok
1 verbose cli [ '/usr/bin/node', '/usr/bin/npm', 'install', '-g', 'modulus' ]
2 info using npm@1.4.28
3 info using node@v0.10.37
4 verbose node symlink /usr/bin/node
5 verbose cache add [ 'modulus', null ]
6 verbose cache add name=undefined spec="modulus" args=["modulus",null]
7 verbose parsed url { protocol: null,
7 verbose parsed url   slashes: null,
7 verbose parsed url   auth: null,
7 verbose parsed url   host: null,
7 verbose parsed url   port: null,
7 verbose parsed url   hostname: null,
7 verbose parsed url   hash: null,
7 verbose parsed url   search: null,
7 verbose parsed url   query: null,
7 verbose parsed url   pathname: 'modulus',
7 verbose parsed url   path: 'modulus',
7 verbose parsed url   href: 'modulus' }
8 silly lockFile 7b42c9a5-modulus modulus
9 verbose lock modulus /home/jesus/.npm/7b42c9a5-modulus.lock
10 silly lockFile 7b42c9a5-modulus modulus
11 silly lockFile 7b42c9a5-modulus modulus
12 verbose addNamed [ 'modulus', '' ]
13 verbose addNamed [ null, '*' ]
14 silly lockFile f279123d-modulus modulus@
15 verbose lock modulus@ /home/jesus/.npm/f279123d-modulus.lock
16 silly addNameRange { name: 'modulus', range: '*', hasData: false }
17 verbose request where is /modulus
18 verbose request registry https://registry.npmjs.org/
19 verbose request id 926bcf8c7eba0a8e
20 verbose url raw /modulus
21 verbose url resolving [ 'https://registry.npmjs.org/', './modulus' ]
22 verbose url resolved https://registry.npmjs.org/modulus
23 verbose request where is https://registry.npmjs.org/modulus
24 info trying registry request attempt 1 at 12:52:29
25 http GET https://registry.npmjs.org/modulus
26 http 200 https://registry.npmjs.org/modulus
27 silly registry.get cb [ 200,
27 silly registry.get   { server: 'CouchDB/1.5.0 (Erlang OTP/R16B03)',
27 silly registry.get     etag: '"26RIA2FULUPHXW2M334IELMUT"',
27 silly registry.get     'content-type': 'application/json',
27 silly registry.get     'cache-control': 'max-age=60',
27 silly registry.get     'content-length': '158798',
27 silly registry.get     'accept-ranges': 'bytes',
27 silly registry.get     date: 'Fri, 24 Jul 2015 10:52:29 GMT',
27 silly registry.get     via: '1.1 varnish',
27 silly registry.get     age: '0',
27 silly registry.get     connection: 'keep-alive',
27 silly registry.get     'x-served-by': 'cache-lcy1124-LCY',
27 silly registry.get     'x-cache': 'MISS',
27 silly registry.get     'x-cache-hits': '0',
27 silly registry.get     'x-timer': 'S1437735149.787944,VS0,VE104',
27 silly registry.get     vary: 'Accept' } ]
28 silly addNameRange number 2 { name: 'modulus', range: '*', hasData: true }
29 silly addNameRange versions [ 'modulus',
29 silly addNameRange   [ '0.0.1',
29 silly addNameRange     '0.0.2',
29 silly addNameRange     '0.0.3',
29 silly addNameRange     '0.0.4',
29 silly addNameRange     '0.0.5',
29 silly addNameRange     '0.1.0',
29 silly addNameRange     '0.1.1',
29 silly addNameRange     '0.1.2',
29 silly addNameRange     '0.1.3',
29 silly addNameRange     '0.1.4',
29 silly addNameRange     '0.1.5',
29 silly addNameRange     '0.1.6',
29 silly addNameRange     '0.1.7',
29 silly addNameRange     '0.1.8',
29 silly addNameRange     '0.1.9',
29 silly addNameRange     '0.1.10',
29 silly addNameRange     '0.1.11',
29 silly addNameRange     '0.1.12',
29 silly addNameRange     '0.1.13',
29 silly addNameRange     '0.1.14',
29 silly addNameRange     '0.1.14-2',
29 silly addNameRange     '0.1.15',
29 silly addNameRange     '0.1.16',
29 silly addNameRange     '0.1.17',
29 silly addNameRange     '0.1.18',
29 silly addNameRange     '0.2.0',
29 silly addNameRange     '0.2.1',
29 silly addNameRange     '0.2.2',
29 silly addNameRange     '0.2.2-1',
29 silly addNameRange     '0.2.2-2',
29 silly addNameRange     '0.2.3',
29 silly addNameRange     '0.3.0',
29 silly addNameRange     '0.3.1',
29 silly addNameRange     '0.4.0',
29 silly addNameRange     '0.5.0',
29 silly addNameRange     '0.5.1',
29 silly addNameRange     '0.6.2',
29 silly addNameRange     '0.6.3',
29 silly addNameRange     '1.0.0',
29 silly addNameRange     '1.0.1',
29 silly addNameRange     '1.0.2',
29 silly addNameRange     '1.0.3',
29 silly addNameRange     '1.1.0',
29 silly addNameRange     '1.1.1',
29 silly addNameRange     '1.2.0',
29 silly addNameRange     '1.2.1',
29 silly addNameRange     '1.2.2',
29 silly addNameRange     '2.0.0',
29 silly addNameRange     '2.0.1',
29 silly addNameRange     '2.0.2',
29 silly addNameRange     '2.1.0',
29 silly addNameRange     '3.0.0',
29 silly addNameRange     '3.0.1',
29 silly addNameRange     '3.0.2',
29 silly addNameRange     '3.0.3',
29 silly addNameRange     '3.0.4',
29 silly addNameRange     '3.0.5',
29 silly addNameRange     '3.1.0',
29 silly addNameRange     '3.2.0',
29 silly addNameRange     '3.2.1',
29 silly addNameRange     '3.3.0',
29 silly addNameRange     '3.4.0',
29 silly addNameRange     '3.4.1',
29 silly addNameRange     '3.4.2',
29 silly addNameRange     '3.5.0',
29 silly addNameRange     '3.5.1',
29 silly addNameRange     '3.6.0',
29 silly addNameRange     '3.6.1',
29 silly addNameRange     '3.6.2',
29 silly addNameRange     '3.6.3',
29 silly addNameRange     '3.7.0',
29 silly addNameRange     '3.7.1',
29 silly addNameRange     '3.7.2',
29 silly addNameRange     '3.7.3',
29 silly addNameRange     '3.8.0',
29 silly addNameRange     '3.9.0',
29 silly addNameRange     '3.10.0',
29 silly addNameRange     '3.10.1',
29 silly addNameRange     '3.10.2',
29 silly addNameRange     '3.10.3',
29 silly addNameRange     '3.11.0',
29 silly addNameRange     '3.11.1',
29 silly addNameRange     '3.13.0',
29 silly addNameRange     '3.13.1',
29 silly addNameRange     '3.13.2',
29 silly addNameRange     '3.13.3' ] ]
30 verbose addNamed [ 'modulus', '3.13.3' ]
31 verbose addNamed [ '3.13.3', '3.13.3' ]
32 silly lockFile ceeb7482-modulus-3-13-3 modulus@3.13.3
33 verbose lock modulus@3.13.3 /home/jesus/.npm/ceeb7482-modulus-3-13-3.lock
34 silly lockFile ce201ee6-s-org-modulus-modulus-3-13-3-tgz https://registry.npmjs.org/modulus/-/modulus-3.13.3.tgz
35 verbose lock https://registry.npmjs.org/modulus/-/modulus-3.13.3.tgz /home/jesus/.npm/ce201ee6-s-org-modulus-modulus-3-13-3-tgz.lock
36 verbose addRemoteTarball [ 'https://registry.npmjs.org/modulus/-/modulus-3.13.3.tgz',
36 verbose addRemoteTarball   '43a666a18e1f22bc2c38564561f21ccb2acb7014' ]
37 info retry fetch attempt 1 at 12:52:30
38 verbose fetch to= /tmp/npm-3819-ha2UpwN9/registry.npmjs.org/modulus/-/modulus-3.13.3.tgz
39 http GET https://registry.npmjs.org/modulus/-/modulus-3.13.3.tgz
40 http 200 https://registry.npmjs.org/modulus/-/modulus-3.13.3.tgz
41 silly lockFile ce201ee6-s-org-modulus-modulus-3-13-3-tgz https://registry.npmjs.org/modulus/-/modulus-3.13.3.tgz
42 silly lockFile ce201ee6-s-org-modulus-modulus-3-13-3-tgz https://registry.npmjs.org/modulus/-/modulus-3.13.3.tgz
43 silly lockFile ceeb7482-modulus-3-13-3 modulus@3.13.3
44 silly lockFile ceeb7482-modulus-3-13-3 modulus@3.13.3
45 silly lockFile f279123d-modulus modulus@
46 silly lockFile f279123d-modulus modulus@
47 silly resolved [ { name: 'modulus',
47 silly resolved     description: 'The command line interface for deploying applications to the Modulus hosting platform.',
47 silly resolved     keywords:
47 silly resolved      [ 'cli',
47 silly resolved        'modulus',
47 silly resolved        'hosting',
47 silly resolved        'cloud hosting',
47 silly resolved        'paas',
47 silly resolved        'platform-as-a-service',
47 silly resolved        'deployment',
47 silly resolved        'deploy',
47 silly resolved        'command line',
47 silly resolved        'modulusio' ],
47 silly resolved     version: '3.13.3',
47 silly resolved     author: { name: 'Modulus', email: 'feedback@modulus.io' },
47 silly resolved     maintainers:
47 silly resolved      [ [Object],
47 silly resolved        [Object],
47 silly resolved        [Object],
47 silly resolved        [Object],
47 silly resolved        [Object],
47 silly resolved        [Object],
47 silly resolved        [Object] ],
47 silly resolved     repository:
47 silly resolved      { type: 'git',
47 silly resolved        url: 'git+https://github.com/onmodulus/modulus-cli.git' },
47 silly resolved     licenses: [ [Object] ],
47 silly resolved     dependencies:
47 silly resolved      { async: '0.1.x',
47 silly resolved        colors: '0.6.x',
47 silly resolved        'commander-plus': '0.0.x',
47 silly resolved        demeteorizer: '2.x.x',
47 silly resolved        'find-file-sync': '0.0.2',
47 silly resolved        'fs-tools': '~0.2.10',
47 silly resolved        'fstream-ignore': '0.0.x',
47 silly resolved        'node-uuid': '1.3.3',
47 silly resolved        progress: '0.1.x',
47 silly resolved        prompt: '0.2.x',
47 silly resolved        request: '2.27.x',
47 silly resolved        split: '0.3.0',
47 silly resolved        'text-table': '0.2.0',
47 silly resolved        through: '2.3.4',
47 silly resolved        underscore: '1.4.x',
47 silly resolved        'update-notifier': '~0.1.7',
47 silly resolved        'zip-stream': '0.5.1' },
47 silly resolved     devDependencies: { mocha: '1.5.x', express: '3.0.x' },
47 silly resolved     main: './lib/modulus',
47 silly resolved     bin: { modulus: './bin/modulus' },
47 silly resolved     preferGlobal: true,
47 silly resolved     engines: { node: '>= 0.8.0' },
47 silly resolved     scripts: {},
47 silly resolved     gitHead: '777645b850eb274d25d6caa6fc6e2bcc56fe1390',
47 silly resolved     bugs: { url: 'https://github.com/onmodulus/modulus-cli/issues' },
47 silly resolved     homepage: 'https://github.com/onmodulus/modulus-cli#readme',
47 silly resolved     _id: 'modulus@3.13.3',
47 silly resolved     _shasum: '43a666a18e1f22bc2c38564561f21ccb2acb7014',
47 silly resolved     _from: 'modulus@',
47 silly resolved     _npmVersion: '2.11.0',
47 silly resolved     _nodeVersion: '2.2.1',
47 silly resolved     _npmUser: { name: 'fiveisprime', email: 'matt@modulus.io' },
47 silly resolved     dist:
47 silly resolved      { shasum: '43a666a18e1f22bc2c38564561f21ccb2acb7014',
47 silly resolved        tarball: 'http://registry.npmjs.org/modulus/-/modulus-3.13.3.tgz' },
47 silly resolved     directories: {},
47 silly resolved     _resolved: 'https://registry.npmjs.org/modulus/-/modulus-3.13.3.tgz' } ]
48 info install modulus@3.13.3 into /usr/lib
49 info installOne modulus@3.13.3
50 verbose lib/node_modules/modulus unbuild
51 verbose tar unpack /home/jesus/.npm/modulus/3.13.3/package.tgz
52 silly lockFile 6fdb1d6b-tar-usr-lib-node-modules-modulus tar:///usr/lib/node_modules/modulus
53 verbose lock tar:///usr/lib/node_modules/modulus /home/jesus/.npm/6fdb1d6b-tar-usr-lib-node-modules-modulus.lock
54 silly lockFile 80a04f75-s-npm-modulus-3-13-3-package-tgz tar:///home/jesus/.npm/modulus/3.13.3/package.tgz
55 verbose lock tar:///home/jesus/.npm/modulus/3.13.3/package.tgz /home/jesus/.npm/80a04f75-s-npm-modulus-3-13-3-package-tgz.lock
56 silly gunzTarPerm modes [ '775', '664' ]
57 error Error: EACCES, mkdir '/usr/lib/node_modules/modulus'
57 error  { [Error: EACCES, mkdir '/usr/lib/node_modules/modulus']
57 error   errno: 3,
57 error   code: 'EACCES',
57 error   path: '/usr/lib/node_modules/modulus',
57 error   fstream_type: 'Directory',
57 error   fstream_path: '/usr/lib/node_modules/modulus',
57 error   fstream_class: 'DirWriter',
57 error   fstream_stack:
57 error    [ '/usr/lib/node_modules/npm/node_modules/fstream/lib/dir-writer.js:36:23',
57 error      '/usr/lib/node_modules/npm/node_modules/mkdirp/index.js:46:53',
57 error      'Object.oncomplete (fs.js:108:15)' ] }
58 error Please try running this command again as root/Administrator.
59 error System Linux 3.16.0-41-generic
60 error command "/usr/bin/node" "/usr/bin/npm" "install" "-g" "modulus"
61 error cwd /home/jesus/Projects/tds-project/app
62 error node -v v0.10.37
63 error npm -v 1.4.28
64 error path /usr/lib/node_modules/modulus
65 error fstream_path /usr/lib/node_modules/modulus
66 error fstream_type Directory
67 error fstream_class DirWriter
68 error code EACCES
69 error errno 3
70 error stack Error: EACCES, mkdir '/usr/lib/node_modules/modulus'
71 error fstream_stack /usr/lib/node_modules/npm/node_modules/fstream/lib/dir-writer.js:36:23
71 error fstream_stack /usr/lib/node_modules/npm/node_modules/mkdirp/index.js:46:53
71 error fstream_stack Object.oncomplete (fs.js:108:15)
72 verbose exit [ 3, true ]
